^C:\LAB\CPP\XENICS_TESTING\XENICS_TESTING\X64\DEBUG\EURESYS_XENICS.LIB|C:\LAB\CPP\XENICS_TESTING\XENICS_TESTING\XENICS_TESTING\X64\DEBUG\BOBCATETHERNET.OBJ|C:\LAB\CPP\XENICS_TESTING\XENICS_TESTING\XENICS_TESTING\X64\DEBUG\XENICS_MAIN_TEST.OBJ
C:\LAB\CPP\XENICS_TESTING\XENICS_TESTING\X64\DEBUG\XENICS_TESTING.DLL
C:\LAB\CPP\XENICS_TESTING\XENICS_TESTING\X64\DEBUG\XENICS_TESTING.ILK
C:\LAB\CPP\XENICS_TESTING\XENICS_TESTING\X64\DEBUG\XENICS_TESTING.PDB
