^C:\LAB\CPP\XENICS_TESTING\XENICS_TESTING\EURESYS_XENICS\X64\DEBUG\DUALCHANNEL.OBJ|C:\LAB\CPP\XENICS_TESTING\XENICS_TESTING\EURESYS_XENICS\X64\DEBUG\THREADINGSTUFF.OBJ
C:\LAB\CPP\XENICS_TESTING\XENICS_TESTING\X64\DEBUG\EURESYS_XENICS.ILK
C:\LAB\CPP\XENICS_TESTING\XENICS_TESTING\X64\DEBUG\EURESYS_XENICS.DLL
C:\LAB\CPP\XENICS_TESTING\XENICS_TESTING\X64\DEBUG\EURESYS_XENICS.PDB
